
2017-06-23T17:22:42.937 : saveChanges: com.mycompany.floormasteryproject.dto.Order@1677d1
2017-06-23T22:36:34.373 : saveChanges: com.mycompany.floormasteryproject.dto.Order@51e5fc98
2017-06-23T23:00:05.813 : saveChanges: com.mycompany.floormasteryproject.dto.Order@51e5fc98
2017-06-24T01:47:17.328 : saveChanges: com.mycompany.floormasteryproject.dto.Order@1efe439d
2017-06-24T08:18:11.415 : saveChanges: com.mycompany.floormasteryproject.dto.Order@778d1062
2017-06-24T08:23:06.930 : saveChanges: com.mycompany.floormasteryproject.dto.Order@778d1062
2017-06-24T08:33:42.814 : saveChanges: com.mycompany.floormasteryproject.dto.Order@51e5fc98
2017-06-24T08:35:00.804 : saveChanges: com.mycompany.floormasteryproject.dto.Order@71b1176b
2017-06-24T12:31:12.305 : saveChanges: com.mycompany.floormasteryproject.dto.Order@7e5c856f
2017-06-25T23:29:31.311 : saveChanges: com.mycompany.floormasteryproject.dto.Order@5d53d1e9
2017-06-25T23:52:11.431 : saveChanges: com.mycompany.floormasteryproject.dto.Order@a1314022
2017-06-26T00:03:23.338 : saveChanges: com.mycompany.floormasteryproject.dto.Order@1ac25cf5
2017-06-26T00:04:25.610 : saveChanges: com.mycompany.floormasteryproject.dto.Order@2fb22f95
2017-06-26T00:04:53.421 : saveChanges: com.mycompany.floormasteryproject.dto.Order@2fb22f95
2017-06-26T00:04:55.322 : saveChanges: com.mycompany.floormasteryproject.dto.Order@2fb22f95
2017-06-26T00:04:57.425 : saveChanges: com.mycompany.floormasteryproject.dto.Order@2fb22f95
2017-06-26T00:04:58.725 : saveChanges: com.mycompany.floormasteryproject.dto.Order@2fb22f95
2017-06-26T00:06:56.656 : saveChanges: com.mycompany.floormasteryproject.dto.Order@cfcfb1af
2017-06-26T00:12:55.281 : saveChanges: com.mycompany.floormasteryproject.dto.Order@3bbaa747
2017-06-27T00:31:29.427 : saveChanges: com.mycompany.floormasteryproject.dto.Order@ebff1f38
2017-06-27T00:32:20.745 : saveChanges: com.mycompany.floormasteryproject.dto.Order@123e2acd
2017-06-27T00:32:51.072 : saveChanges: com.mycompany.floormasteryproject.dto.Order@52fb2750
2017-06-27T00:33:24.903 : saveChanges: com.mycompany.floormasteryproject.dto.Order@7b1079a5
2017-06-27T00:42:56.776 : saveChanges: com.mycompany.floormasteryproject.dto.Order@47f9ea42
2017-06-27T23:05:28.179 : saveChanges: com.mycompany.floormasteryproject.dto.Order@442db05d
2017-06-28T09:24:45.185 : saveChanges: com.mycompany.floormasteryproject.dto.Order@9e75a793
2017-06-28T09:31:39.012 : saveChanges: com.mycompany.floormasteryproject.dto.Order@9e75a793
2017-06-28T10:00:12.638 : saveChanges: com.mycompany.floormasteryproject.dto.Order@8af4a64
2017-06-28T10:26:05.662 : saveChanges: com.mycompany.floormasteryproject.dto.Order@f037e5ff
2017-06-28T10:52:04.393 : saveChanges: com.mycompany.floormasteryproject.dto.Order@442db05d
2017-06-28T10:52:29.209 : saveChanges: com.mycompany.floormasteryproject.dto.Order@442db05d
2017-06-28T11:17:47.833 : saveChanges: com.mycompany.floormasteryproject.dto.Order@9e75a793
2017-06-28T18:35:15.888 : saveChanges: com.mycompany.floormasteryproject.dto.Order@442db05d
2017-06-28T18:52:06.257 : saveChanges: com.mycompany.floormasteryproject.dto.Order@442db05d
2017-06-28T19:25:29.326 : saveChanges: com.mycompany.floormasteryproject.dto.Order@442db05d
2017-06-28T20:40:22.944 : saveChanges: com.mycompany.floormasteryproject.dto.Order@442db05d
2017-06-28T20:52:57.123 : saveChanges: com.mycompany.floormasteryproject.dto.Order@c1ea3035
2017-06-28T21:11:32.744 : saveChanges: com.mycompany.floormasteryproject.dto.Order@c1ea3035
2017-06-29T10:26:31.319 : saveChanges: com.mycompany.floormasteryproject.dto.Order@442db05d
2017-06-29T11:21:37.258 : saveChanges: com.mycompany.floormasteryproject.dto.Order@1b0a749a
2017-06-29T11:43:57.153 : saveChanges: com.mycompany.floormasteryproject.dto.Order@1b0a749a
2017-06-29T11:49:32.295 : saveChanges: com.mycompany.floormasteryproject.dto.Order@1b0a749a
2017-06-29T11:50:52.911 : saveChanges: com.mycompany.floormasteryproject.dto.Order@9e75a793
2017-06-29T12:26:24.855 : saveChanges: com.mycompany.floormasteryproject.dto.Order@c1ea3035
2017-06-29T12:39:49.841 : saveChanges: com.mycompany.floormasteryproject.dto.Order@756bdd0d
2017-06-29T12:41:22.307 : saveChanges: com.mycompany.floormasteryproject.dto.Order@c1ea3035
2017-06-29T12:41:45.127 : saveChanges: com.mycompany.floormasteryproject.dto.Order@7b8d53df
2017-06-29T15:11:32.718 : saveChanges: com.mycompany.floormasteryproject.dto.Order@921fe5ac
2017-06-29T15:28:44.611 : saveChanges: com.mycompany.floormasteryproject.dto.Order@f795ebf8
2017-06-29T15:30:44.971 : saveChanges: com.mycompany.floormasteryproject.dto.Order@756bdd0d
2017-06-29T16:00:41.626 : saveChanges: com.mycompany.floormasteryproject.dto.Order@442db05d
2017-06-29T16:35:58.870 : saveChanges: com.mycompany.floormasteryproject.dto.Order@1b0a749a
2017-06-29T16:39:02.761 : saveChanges: com.mycompany.floormasteryproject.dto.Order@1b0a749a
2017-06-29T19:44:08.558 : saveChanges: com.mycompany.floormasteryproject.dto.Order@1b0a749a
2017-06-29T19:52:53.129 : saveChanges: com.mycompany.floormasteryproject.dto.Order@ce72b035
2017-06-29T19:53:27.777 : saveChanges: com.mycompany.floormasteryproject.dto.Order@1b0a749a
2017-06-29T19:59:26.403 : saveChanges: com.mycompany.floormasteryproject.dto.Order@442db05d
2017-06-29T20:32:30.745 : saveChanges: com.mycompany.floormasteryproject.dto.Order@442db05d
2017-06-29T20:50:39.075 : saveChanges: com.mycompany.floormasteryproject.dto.Order@442db05d
2017-06-29T21:30:46.052 : saveChanges: com.mycompany.floormasteryproject.dto.Order@aafe2793
2017-06-29T21:31:39.850 : saveChanges: com.mycompany.floormasteryproject.dto.Order@170fd77f
2017-06-29T21:34:09.092 : saveChanges: com.mycompany.floormasteryproject.dto.Order@46812e0
2017-07-05T19:49:44.581 : saveChanges: com.mycompany.floormasteryproject.dto.Order@b7d04e7b
2017-07-05T20:10:39.725 : saveChanges: com.mycompany.floormasteryproject.dto.Order@442db05d
2017-07-05T20:12:08.850 : saveChanges: com.mycompany.floormasteryproject.dto.Order@442db05d
2017-07-05T20:13:38.072 : saveChanges: com.mycompany.floormasteryproject.dto.Order@442db05d
